{
    "KPlugin": {
        "Authors": [
            {
                "Email": "your.name@mail.com",
                "Name": "Your Name",
                "Name[ca]": "El vostre nom",
                "Name[cs]": "Vaše jméno",
                "Name[eo]": "Via nomo",
                "Name[es]": "Su nombre",
                "Name[fi]": "Tekijän nimi",
                "Name[fr]": "Votre nom",
                "Name[gl]": "Autoría",
                "Name[it]": "Il tuo nome",
                "Name[nl]": "Uw naam",
                "Name[pt]": "O Seu Nome",
                "Name[sl]": "Vaše ime",
                "Name[sv]": "Ditt namn",
                "Name[tr]": "Emir SARI",
                "Name[uk]": "Ваше ім’я",
                "Name[x-test]": "xxYour Namexx"
            }
        ],
        "Description": "Part of a tutorial demonstrating how to create Runner plugins",
        "Description[ca]": "Part d'una guia d'aprenentatge que mostra com crear connectors del Runner",
        "Description[cs]": "Část ukázky demonstrující vytváření modulů pro Runner",
        "Description[eo]": "Parto de lernilo pruvanta kiel krei Runner-kromaĵojn",
        "Description[es]": "Parte de un tutorial que enseña a crear complementos de Runner",
        "Description[fi]": "Osa Runner-liitännäisten luomisen opastavaa toimintoa",
        "Description[fr]": "Partie d'un tutoriel de démonstration sur comment créer des modules externes « Runner »",
        "Description[gl]": "Parte dun titorial que demostra como crear complementos de Runner.",
        "Description[it]": "Parte di un'esercitazione che mostra come creare un'estensione di Runner",
        "Description[nl]": "Deel van een inleiding die demonstreert hoe Runner-plug-ins aan te maken",
        "Description[pt]": "Parte de um tutorial que demonstra como criar 'plugins' de execução",
        "Description[sl]": "Del vaje, ki kaže, kako ustvariti vstavke Runner",
        "Description[sv]": "Del av en handledning som demonstrerar hur man skapar körinsticksprogram",
        "Description[tr]": "Nasıl Çalıştırıcı eklentileri oluşturulacağını gösteren bir öğretici serisinin bir parçası",
        "Description[uk]": "Частина підручника, який демонструє створення додатків до засобу запуску",
        "Description[x-test]": "xxPart of a tutorial demonstrating how to create Runner pluginsxx",
        "EnabledByDefault": true,
        "Icon": "user-home",
        "License": "GPL",
        "Name": "Home Files",
        "Name[ca]": "Fitxers del directori d'inici",
        "Name[cs]": "Soubory domovské složky",
        "Name[eo]": "Hejmaj Dosieroj",
        "Name[es]": "Archivos de inicio",
        "Name[fi]": "Kotitiedostot",
        "Name[fr]": "Fichier de votre dossier personnel",
        "Name[gl]": "Ficheiros persoais",
        "Name[it]": "File della home",
        "Name[nl]": "Bestanden in persoonlijke hoofdmap",
        "Name[pt]": "Ficheiros Pessoais",
        "Name[sl]": "Domače datoteke",
        "Name[sv]": "Hemfiler",
        "Name[tr]": "Ana Klasör Dosyaları",
        "Name[uk]": "Домашні файли",
        "Name[x-test]": "xxHome Filesxx",
        "Version": "0.1",
        "Website": "http://plasma.kde.org/"
    },
    "X-KDE-ConfigModule": "kf5/krunner/kcms/kcm_homefilesrunner"
}
